Number of stars = 2000
Systemic velocity(km/s) = 0
Velocity dispersion(km/s) = 2
Binary fraction = 0.5
Number of epochs = 10
Time between epochs = 1 year
Measurement error(km/s) = 0.1

distance in kpc: 6
magnitude limit = 20
absolute magnitude limit = 6.10924

------------------------------------------------

Distributions of orbital parameters:

Mean binary period (mu_logP) = 1
Spread of binary periods (sigma_logP) = 1.5
Minimum allowed logP: -7.00
Maximum allowed logP: 7.44

Mean mass ratio (mu_q) = 0.5
Dispersion of mass ratio (sigma_q) = 0.3

Mean eccentricity (mu_e) = 0.25
Dispersion of eccentricity (sigma_e) = 0.12
